{
  "country": [
    {
      "id": "9f3cd6fe-1f1c-4ae6-938e-e4c91dab3dba",
      "name": "poland",
      "capital": "brunei"
    },
    {
      "id": "3b175616-54ff-47a6-95bf-cdf4ff0fd072",
      "name": "Indonesia",
      "capital": "Jakarta"
    }
  ]
}